KBAD 040256Z AUTO 36004KT 10SM SCT140 27/23 A2993 RMK AO2 SLP136 T02670227 53012
KBAD 040156Z AUTO 02004KT 10SM BKN130 27/22 A2991 RMK AO2 SLP130 T02740219
KBAD 040056Z AUTO 36003KT 10SM FEW140 28/22 A2990 RMK AO2 SLP126 T02830215
KBAD 032356Z AUTO 36004KT 10SM BKN110 OVC140 30/22 A2990 RMK AO2 SLP126 T02970219 10317 20295 57006
KBAD 032256Z AUTO 36004KT 10SM OVC130 32/22 A2990 RMK AO2 SLP126 T03170221
KBAD 032156Z AUTO 03005KT 10SM OVC130 30/21 A2990 RMK AO2 SLP126 T03030211
KBAD 032056Z AUTO 00000KT 10SM SCT130 32/21 A2991 RMK AO2 SLP129 T03160211 57019
KBAD 031956Z AUTO 35004KT 10SM BKN100 OVC120 30/21 A2994 RMK AO2 SLP140 T03000213
KBAD 031856Z AUTO 32005KT 10SM OVC095 30/21 A2995 RMK AO2 SLP143 T02990207
KBAD 031756Z AUTO 03004KT 10SM SCT045 BKN055 OVC090 30/21 A2997 RMK AO2 SLP150 60000 T03010206 10308 20233 58007
KBAD 031656Z AUTO 25004KT 10SM BKN110 30/21 A2998 RMK AO2 RAB08E18 SLP153 P0000 T03030205
KBAD 031618Z AUTO 00000KT 10SM BKN100 30/21 A2999 RMK AO2 RAB08E18 SLP157
KBAD 031608Z AUTO 00000KT 10SM -RA BKN100 30/21 A2999 RMK AO2 RAB08 SLP157
KBAD 031556Z AUTO 00000KT 10SM BKN100 29/21 A2999 RMK AO2 SLP157 T02940205
KBAD 031456Z AUTO 00000KT 10SM FEW150 SCT170 BKN220 28/21 A2999 RMK AO2 SLP157 T02800205 52006
KBAD 031356Z AUTO 00000KT 10SM BKN160 26/22 A2998 RMK AO2 VIS 1 3/4 RWY33 SLP153 T02570215
KBAD 031256Z AUTO 12003KT 10SM SCT170 OVC210 24/22 A2997 RMK AO2 VIS 1 RWY33 SLP150 T02410221
KBAD 031156Z AUTO 00000KT 10SM BKN170 23/22 A2997 RMK AO2 SLP150 T02320222 10247 20232 53008
KBAD 031056Z AUTO 00000KT 10SM OVC140 24/22 A2995 RMK AO2 SLP143 T02360217
KBAD 030956Z AUTO 00000KT 10SM BKN130 OVC150 24/22 A2994 RMK AO2 SLP140 T02410216
KBAD 030856Z AUTO 00000KT 10SM OVC130 24/22 A2994 RMK AO2 SLP140 T02430223 55006
KBAD 030756Z AUTO 00000KT 10SM OVC140 25/22 A2994 RMK AO2 SLP140 T02460217
KBAD 030656Z AUTO 00000KT 10SM BKN150 24/22 A2995 RMK AO2 SLP143 T02410223
KBAD 030556Z AUTO 12003KT 10SM BKN150 24/23 A2996 RMK AO2 SLP146 T02350230 10296 20235 403340215 50005
KBAD 030456Z AUTO 05003KT 10SM FEW150 25/23 A2997 RMK AO2 SLP150 T02520230
KBAD 030356Z AUTO 00000KT 10SM CLR 25/23 A2996 RMK AO2 SLP147 T02540230
KBAD 030256Z AUTO 11004KT 10SM BKN190 25/24 A2995 RMK AO2 SLP143 T02530242 53004
KBAD 030156Z AUTO 09003KT 10SM FEW180 27/23 A2994 RMK AO2 SLP140 T02720226
KBAD 030056Z AUTO 00000KT 10SM CLR 28/22 A2993 RMK AO2 SLP136 T02840224
KBAD 022356Z AUTO 08004KT 10SM CLR 30/22 A2993 RMK AO2 SLP136 T02970221 10334 20297 56010
KBAD 022256Z AUTO 07006KT 10SM FEW040 31/22 A2994 RMK AO2 SLP140 T03110221
KBAD 022156Z AUTO 06006KT 10SM FEW043 FEW200 33/22 A2995 RMK AO2 SLP143 T03270218
KBAD 022056Z AUTO 07005KT 10SM SCT045 32/21 A2997 RMK AO2 SLP150 T03180210 57016
KBAD 021956Z AUTO 03006KT 10SM SCT047 32/21 A2998 RMK AO2 SLP153 T03240206
KBAD 021856Z AUTO 00000KT 10SM BKN045 BKN055 32/21 A3000 RMK AO2 SLP160 T03170212
KBAD 021756Z AUTO 35004KT 10SM FEW190 32/21 A3002 RMK AO2 SLP167 T03170206 10322 20223 58006
KBAD 021656Z AUTO 03004KT 10SM FEW190 31/20 A3003 RMK AO2 SLP170 T03100200
KBAD 021556Z AUTO 14004KT 10SM CLR 30/21 A3004 RMK AO2 SLP174 T02970205