{
    "icao": "KSFO",
    "issue_time": "1510",
    "issue_day": 23,
    "issue_month": 8,
    "issue_year": 2019,
    "end_time": "1800",
    "end_day": 24,
    "end_month": 8,
    "end_year": 2019,
    "length_hours": 27,
    "temperature_extremes": {
        "max_temp_group": {
            "max_temp": null,
            "max_temp_time": null,
            "max_temp_day": null,
            "max_temp_month": null,
            "max_temp_year": null
        },
        "min_temp_group": {
            "min_temp": null,
            "min_temp_time": null,
            "min_temp_day": null,
            "min_temp_month": null,
            "min_temp_year": null
        }
    },
    "taf_line_1": {
        "line_type": "predominant",
        "time_frame": {
            "soft_start_time": null,
            "soft_start_day": null,
            "soft_start_month": null,
            "soft_start_year": null,
            "hard_start_time": "1500",
            "hard_start_day": 23,
            "hard_start_month": 8,
            "hard_start_year": 2019,
            "soft_end_time": null,
            "soft_end_day": null,
            "soft_end_month": null,
            "soft_end_year": null,
            "hard_end_time": "1600",
            "hard_end_day": 23,
            "hard_end_month": 8,
            "hard_end_year": 2019
        },
        "wind": {
            "wind_dir": "280",
            "wind_speed_sustained": "06",
            "wind_speed_gust": null
        },
        "visibility": "9999",
        "weather": {
            "wx_intensity": null,
            "vicinity_or_not": null,
            "description": null,
            "precipitation": null,
            "obscuration": null,
            "other": null,
            "rotation": null
        },
        "clouds": {
            "cloud_layer_1": {
                "amount": "FEW",
                "base": "200"
            }
        },
        "minimum_alstg": null,
        "low_level_wind_shear": null
    },
    "taf_line_2": {
        "line_type": "predominant",
        "time_frame": {
            "soft_start_time": null,
            "soft_start_day": null,
            "soft_start_month": null,
            "soft_start_year": null,
            "hard_start_time": "1600",
            "hard_start_day": 23,
            "hard_start_month": 8,
            "hard_start_year": 2019,
            "soft_end_time": null,
            "soft_end_day": null,
            "soft_end_month": null,
            "soft_end_year": null,
            "hard_end_time": "1900",
            "hard_end_day": 23,
            "hard_end_month": 8,
            "hard_end_year": 2019
        },
        "wind": {
            "wind_dir": "010",
            "wind_speed_sustained": "05",
            "wind_speed_gust": null
        },
        "visibility": "9999",
        "weather": {
            "wx_intensity": null,
            "vicinity_or_not": null,
            "description": null,
            "precipitation": null,
            "obscuration": null,
            "other": null,
            "rotation": null
        },
        "clouds": {
            "cloud_layer_1": {
                "amount": "FEW",
                "base": "200"
            }
        },
        "minimum_alstg": null,
        "low_level_wind_shear": null
    },
    "taf_line_3": {
        "line_type": "predominant",
        "time_frame": {
            "soft_start_time": null,
            "soft_start_day": null,
            "soft_start_month": null,
            "soft_start_year": null,
            "hard_start_time": "1900",
            "hard_start_day": 23,
            "hard_start_month": 8,
            "hard_start_year": 2019,
            "soft_end_time": null,
            "soft_end_day": null,
            "soft_end_month": null,
            "soft_end_year": null,
            "hard_end_time": "2100",
            "hard_end_day": 23,
            "hard_end_month": 8,
            "hard_end_year": 2019
        },
        "wind": {
            "wind_dir": "330",
            "wind_speed_sustained": "08",
            "wind_speed_gust": null
        },
        "visibility": "9999",
        "weather": {
            "wx_intensity": null,
            "vicinity_or_not": null,
            "description": null,
            "precipitation": null,
            "obscuration": null,
            "other": null,
            "rotation": null
        },
        "clouds": {
            "cloud_layer_1": {
                "amount": "FEW",
                "base": "200"
            }
        },
        "minimum_alstg": null,
        "low_level_wind_shear": null
    },
    "taf_line_4": {
        "line_type": "predominant",
        "time_frame": {
            "soft_start_time": null,
            "soft_start_day": null,
            "soft_start_month": null,
            "soft_start_year": null,
            "hard_start_time": "2100",
            "hard_start_day": 23,
            "hard_start_month": 8,
            "hard_start_year": 2019,
            "soft_end_time": null,
            "soft_end_day": null,
            "soft_end_month": null,
            "soft_end_year": null,
            "hard_end_time": "0400",
            "hard_end_day": 24,
            "hard_end_month": 8,
            "hard_end_year": 2019
        },
        "wind": {
            "wind_dir": "300",
            "wind_speed_sustained": "16",
            "wind_speed_gust": null
        },
        "visibility": "9999",
        "weather": {
            "wx_intensity": null,
            "vicinity_or_not": null,
            "description": null,
            "precipitation": null,
            "obscuration": null,
            "other": null,
            "rotation": null
        },
        "clouds": {
            "cloud_layer_1": {
                "amount": "FEW",
                "base": "011"
            }
        },
        "minimum_alstg": null,
        "low_level_wind_shear": null
    },
    "taf_line_5": {
        "line_type": "predominant",
        "time_frame": {
            "soft_start_time": null,
            "soft_start_day": null,
            "soft_start_month": null,
            "soft_start_year": null,
            "hard_start_time": "0400",
            "hard_start_day": 24,
            "hard_start_month": 8,
            "hard_start_year": 2019,
            "soft_end_time": null,
            "soft_end_day": null,
            "soft_end_month": null,
            "soft_end_year": null,
            "hard_end_time": "0800",
            "hard_end_day": 24,
            "hard_end_month": 8,
            "hard_end_year": 2019
        },
        "wind": {
            "wind_dir": "290",
            "wind_speed_sustained": "13",
            "wind_speed_gust": null
        },
        "visibility": "9999",
        "weather": {
            "wx_intensity": null,
            "vicinity_or_not": null,
            "description": null,
            "precipitation": null,
            "obscuration": null,
            "other": null,
            "rotation": null
        },
        "clouds": {
            "cloud_layer_1": {
                "amount": "FEW",
                "base": "010"
            }
        },
        "minimum_alstg": null,
        "low_level_wind_shear": null
    },
    "taf_line_6": {
        "line_type": "predominant",
        "time_frame": {
            "soft_start_time": null,
            "soft_start_day": null,
            "soft_start_month": null,
            "soft_start_year": null,
            "hard_start_time": "0800",
            "hard_start_day": 24,
            "hard_start_month": 8,
            "hard_start_year": 2019,
            "soft_end_time": null,
            "soft_end_day": null,
            "soft_end_month": null,
            "soft_end_year": null,
            "hard_end_time": "1700",
            "hard_end_day": 24,
            "hard_end_month": 8,
            "hard_end_year": 2019
        },
        "wind": {
            "wind_dir": "290",
            "wind_speed_sustained": "08",
            "wind_speed_gust": null
        },
        "visibility": "9999",
        "weather": {
            "wx_intensity": null,
            "vicinity_or_not": null,
            "description": null,
            "precipitation": null,
            "obscuration": null,
            "other": null,
            "rotation": null
        },
        "clouds": {
            "cloud_layer_1": {
                "amount": "SCT",
                "base": "010"
            }
        },
        "minimum_alstg": null,
        "low_level_wind_shear": null
    },
    "taf_line_7": {
        "line_type": "predominant",
        "time_frame": {
            "soft_start_time": null,
            "soft_start_day": null,
            "soft_start_month": null,
            "soft_start_year": null,
            "hard_start_time": "1700",
            "hard_start_day": 24,
            "hard_start_month": 8,
            "hard_start_year": 2019,
            "soft_end_time": null,
            "soft_end_day": null,
            "soft_end_month": null,
            "soft_end_year": null,
            "hard_end_time": "1800",
            "hard_end_day": 24,
            "hard_end_month": 8,
            "hard_end_year": 2019
        },
        "wind": {
            "wind_dir": "330",
            "wind_speed_sustained": "06",
            "wind_speed_gust": null
        },
        "visibility": "9999",
        "weather": {
            "wx_intensity": null,
            "vicinity_or_not": null,
            "description": null,
            "precipitation": null,
            "obscuration": null,
            "other": null,
            "rotation": null
        },
        "clouds": {
            "cloud_layer_1": {
                "amount": "FEW",
                "base": "010"
            }
        },
        "minimum_alstg": null,
        "low_level_wind_shear": null
    }
}